<svg xmlns="http://www.w3.org/2000/svg" xmlns:xlink="http://www.w3.org/1999/xlink" width="279" height="258" viewBox="0 0 279 258">
  <defs>
    <filter id="Rectangle_334" x="0" y="0" width="279" height="258" filterUnits="userSpaceOnUse">
      <feOffset dy="3" input="SourceAlpha"/>
      <feGaussianBlur stdDeviation="3" result="blur"/>
      <feFlood flood-opacity="0.161"/>
      <feComposite operator="in" in2="blur"/>
      <feComposite in="SourceGraphic"/>
    </filter>
  </defs>
  <g id="Group_75" data-name="Group 75" transform="translate(-561 -481)">
    <g transform="matrix(1, 0, 0, 1, 561, 481)" filter="url(#Rectangle_334)">
      <rect id="Rectangle_334-2" data-name="Rectangle 334" width="261" height="240" rx="6" transform="translate(9 6)" fill="#fff"/>
    </g>
    <line id="Line_102" data-name="Line 102" x2="149" transform="translate(596.5 588.5)" fill="none" stroke="#707070" stroke-width="1"/>
    <line id="Line_103" data-name="Line 103" x2="149" transform="translate(596.5 629.5)" fill="none" stroke="#707070" stroke-width="1"/>
    <rect id="Rectangle_308" data-name="Rectangle 308" width="148.735" height="8" transform="translate(596.685 569.272)" fill="#e0dfdf"/>
    <rect id="Rectangle_309" data-name="Rectangle 309" width="148.735" height="8" transform="translate(596.685 610.272)" fill="#e0dfdf"/>
    <rect id="Rectangle_310" data-name="Rectangle 310" width="54" height="19" rx="2" transform="translate(753 692)" fill="#e0dfdf"/>
    <rect id="Rectangle_311" data-name="Rectangle 311" width="64" height="4" transform="translate(596.816 507.272)" fill="#e0dfdf"/>
    <g id="baseline-close-24px" transform="translate(791 497)">
      <path id="Path_81" data-name="Path 81" d="M19,6.41,17.59,5,12,10.59,6.41,5,5,6.41,10.59,12,5,17.59,6.41,19,12,13.41,17.59,19,19,17.59,13.41,12Z" fill="#686565"/>
      <path id="Path_82" data-name="Path 82" d="M0,0H24V24H0Z" fill="none"/>
    </g>
    <line id="Line_162" data-name="Line 162" x2="261" transform="translate(570.5 532.5)" fill="none" stroke="#e9e9e9" stroke-width="1"/>
  </g>
</svg>
