<svg xmlns="http://www.w3.org/2000/svg" xmlns:xlink="http://www.w3.org/1999/xlink" width="407.664" height="248" viewBox="0 0 407.664 248">
  <defs>
    <filter id="Rectangle_354" x="0" y="0" width="407.664" height="248" filterUnits="userSpaceOnUse">
      <feOffset dy="3" input="SourceAlpha"/>
      <feGaussianBlur stdDeviation="3" result="blur"/>
      <feFlood flood-opacity="0.161"/>
      <feComposite operator="in" in2="blur"/>
      <feComposite in="SourceGraphic"/>
    </filter>
  </defs>
  <g id="Group_80" data-name="Group 80" transform="translate(-513 -2418)">
    <g transform="matrix(1, 0, 0, 1, 513, 2418)" filter="url(#Rectangle_354)">
      <rect id="Rectangle_354-2" data-name="Rectangle 354" width="389.664" height="230" rx="6" transform="translate(9 6)" fill="#fff"/>
    </g>
    <text id="_Button_.btn_border-radius:_2px_font-weight:_bold_line-height:_18px_padding:_8px_16px_.btn:active_.btn.active_box-shadow:_none_" data-name="/* Button */
.btn { 
  border-radius: 2px; 
  font-weight: bold;
  line-height: 18px;
  padding: 8px 16px;
}

.btn:active,
.btn.active {
  box-shadow: none;
}" transform="translate(562 2450)" fill="#707070" font-size="14" font-family="Lato-Regular, Lato"><tspan x="0" y="0">/* Button */</tspan><tspan x="0" y="17">.btn { </tspan><tspan x="0" y="34" xml:space="preserve">  border-radius: 2px; </tspan><tspan x="0" y="51" xml:space="preserve">  font-weight: bold;</tspan><tspan x="0" y="68" xml:space="preserve">  line-height: 18px;</tspan><tspan x="0" y="85" xml:space="preserve">  padding: 8px 16px;</tspan><tspan x="0" y="102">}</tspan><tspan x="0" y="119"></tspan><tspan x="0" y="136">.btn:active,</tspan><tspan x="0" y="153">.btn.active {</tspan><tspan x="0" y="170" xml:space="preserve">  box-shadow: none;</tspan><tspan x="0" y="187">}</tspan></text>
    <g id="baseline-file_copy-24px" transform="translate(868 2436)">
      <path id="Path_101" data-name="Path 101" d="M0,0H24V24H0Z" fill="none"/>
      <path id="svg_extended_content_copy" d="M11.776,1H3.4A1.4,1.4,0,0,0,2,2.4v9.776H3.4V2.4h8.38Zm2.095,2.793H6.19a1.4,1.4,0,0,0-1.4,1.4v9.776a1.4,1.4,0,0,0,1.4,1.4h7.681a1.4,1.4,0,0,0,1.4-1.4V5.19A1.4,1.4,0,0,0,13.871,3.793Zm0,11.173H6.19V5.19h7.681Z" transform="translate(0.866 2.319)" fill="#686565"/>
    </g>
    <g id="Group_76" data-name="Group 76" transform="translate(-18 444)">
      <rect id="Rectangle_355" data-name="Rectangle 355" width="54" height="13" transform="translate(870 1974)" opacity="0.814"/>
      <path id="Path_103" data-name="Path 103" d="M0,0,3.661,3.661H0Z" transform="translate(894 1987) rotate(-45)" opacity="0.814"/>
      <text id="Copied" transform="translate(881 1984)" fill="snow" font-size="10" font-family="Lato-Regular, Lato"><tspan x="0" y="0">Copied</tspan></text>
    </g>
  </g>
</svg>
