<svg xmlns="http://www.w3.org/2000/svg" xmlns:xlink="http://www.w3.org/1999/xlink" width="407.664" height="161" viewBox="0 0 407.664 161">
  <defs>
    <filter id="Rectangle_356" x="0" y="0" width="407.664" height="161" filterUnits="userSpaceOnUse">
      <feOffset dy="3" input="SourceAlpha"/>
      <feGaussianBlur stdDeviation="3" result="blur"/>
      <feFlood flood-opacity="0.161"/>
      <feComposite operator="in" in2="blur"/>
      <feComposite in="SourceGraphic"/>
    </filter>
  </defs>
  <g id="Group_82" data-name="Group 82" transform="translate(-325 -2873)">
    <g id="Group_78" data-name="Group 78" transform="translate(-52 397)">
      <g transform="matrix(1, 0, 0, 1, 377, 2476)" filter="url(#Rectangle_356)">
        <rect id="Rectangle_356-2" data-name="Rectangle 356" width="389.664" height="143" rx="6" transform="translate(9 6)" fill="#fff"/>
      </g>
      <rect id="Rectangle_358" data-name="Rectangle 358" width="148.735" height="7" transform="translate(426.685 2523.271)" fill="#e0dfdf"/>
      <rect id="Rectangle_357" data-name="Rectangle 357" width="45.735" height="7" transform="translate(393.685 2494.271)" fill="#e0dfdf"/>
      <rect id="Rectangle_359" data-name="Rectangle 359" width="45.735" height="7" transform="translate(455.685 2494.271)" fill="#e0dfdf"/>
      <rect id="Rectangle_360" data-name="Rectangle 360" width="148.735" height="7" transform="translate(426.685 2551.271)" fill="#e0dfdf"/>
      <rect id="Rectangle_363" data-name="Rectangle 363" width="148.735" height="7" transform="translate(426.685 2579.271)" fill="#e0dfdf"/>
      <rect id="Rectangle_365" data-name="Rectangle 365" width="148.735" height="7" transform="translate(426.685 2607.271)" fill="#e0dfdf"/>
      <rect id="Rectangle_361" data-name="Rectangle 361" width="12.554" height="7" transform="translate(397.685 2523.271)" fill="#e0dfdf"/>
      <rect id="Rectangle_362" data-name="Rectangle 362" width="12.554" height="7" transform="translate(397.685 2551.271)" fill="#e0dfdf"/>
      <rect id="Rectangle_364" data-name="Rectangle 364" width="12.554" height="7" transform="translate(397.685 2579.271)" fill="#e0dfdf"/>
      <rect id="Rectangle_366" data-name="Rectangle 366" width="12.554" height="7" transform="translate(397.685 2607.271)" fill="#e0dfdf"/>
      <line id="Line_112" data-name="Line 112" x2="389" transform="translate(386.5 2512.5)" fill="none" stroke="#707070" stroke-width="1"/>
      <line id="Line_113" data-name="Line 113" x2="389" transform="translate(386.5 2540.5)" fill="none" stroke="#e9e9e9" stroke-width="1"/>
      <line id="Line_114" data-name="Line 114" x2="389" transform="translate(386.5 2568.5)" fill="none" stroke="#e9e9e9" stroke-width="1"/>
      <line id="Line_115" data-name="Line 115" x2="389" transform="translate(386.5 2596.5)" fill="none" stroke="#e9e9e9" stroke-width="1"/>
      <path id="Path_105" data-name="Path 105" d="M389,0" transform="translate(386.5 2561.5)" fill="none" stroke="#707070" stroke-width="1"/>
      <g id="baseline-remove_circle-24px" transform="translate(707 2546)">
        <path id="Path_99" data-name="Path 99" d="M0,0H16V16H0Z" fill="none"/>
      </g>
      <path id="Path_99-2" data-name="Path 99" d="M0,0H16V16H0Z" transform="translate(711 2574)" fill="none"/>
      <text id="remove_circle" transform="translate(708 2590)" fill="#e0dfdf" font-size="16" font-family="MaterialIcons-Regular, Material Icons"><tspan x="0" y="0">remove_circle</tspan></text>
      <text id="edit" transform="translate(710 2562)" fill="#686565" font-size="16" font-family="MaterialIcons-Regular, Material Icons"><tspan x="0" y="0">edit</tspan></text>
      <text id="edit-2" data-name="edit" transform="translate(710 2534)" fill="#686565" font-size="16" font-family="MaterialIcons-Regular, Material Icons"><tspan x="0" y="0">edit</tspan></text>
      <text id="remove_circle-2" data-name="remove_circle" transform="translate(708 2619)" fill="#e0dfdf" font-size="16" font-family="MaterialIcons-Regular, Material Icons"><tspan x="0" y="0">remove_circle</tspan></text>
      <text id="close" transform="translate(751.7 2506)" fill="#e0dfdf" font-size="16" font-family="MaterialIcons-Regular, Material Icons"><tspan x="0" y="0">close</tspan></text>
    </g>
    <g id="Group_79" data-name="Group 79" transform="translate(-192 943)">
      <rect id="Rectangle_355" data-name="Rectangle 355" width="44" height="13" transform="translate(870 1974)" opacity="0.814"/>
      <path id="Path_103" data-name="Path 103" d="M0,0,3.661,3.661H0Z" transform="translate(870.038 1978.411) rotate(45)" opacity="0.814"/>
      <text id="Edit-3" data-name="Edit" transform="translate(883 1984)" fill="snow" font-size="10" font-family="Lato-Regular, Lato"><tspan x="0" y="0">Edit</tspan></text>
    </g>
  </g>
</svg>
